…
pp

## # A tibble: 3,393 x 61
##    name   sale  lot   position dealer  year origin_author origin_cat school_pntg
##    <chr>  <chr> <chr>    <dbl> <chr>  <dbl> <chr>         <chr>      <chr>      
##  1 L1764~ L1764 2       0.0328 L       1764 F             O          F          
##  2 L1764~ L1764 3       0.0492 L       1764 I             O          I          
##  3 L1764~ L1764 4       0.0656 L       1764 X             O          D/FL       
##  4 L1764~ L1764 5       0.0820 L       1764 F             O          F          
##  5 L1764~ L1764 5       0.0820 L       1764 F             O          F          
##  6 L1764~ L1764 6       0.0984 L       1764 X             O          I          
##  7 L1764~ L1764 7       0.115  L       1764 F             O          F          
##  8 L1764~ L1764 7       0.115  L       1764 F             O          F          
##  9 L1764~ L1764 8       0.131  L       1764 X             O          I          
## 10 L1764~ L1764 9       0.148  L       1764 D/FL          O          D/FL       
## # ... with 3,383 more rows, and 52 more variables: diff_origin <dbl>,
## #   logprice <dbl>, price <dbl>, count <dbl>, subject <chr>,
## #   authorstandard <chr>, artistliving <dbl>, authorstyle <chr>, author <chr>,
## #   winningbidder <chr>, winningbiddertype <chr>, endbuyer <chr>, Interm <dbl>,
## #   type_intermed <chr>, Height_in <dbl>, Width_in <dbl>, Surface_Rect <dbl>,
## #   Diam_in <dbl>, Surface_Rnd <dbl>, Shape <chr>, Surface <dbl>,
## #   material <chr>, mat <chr>, materialCat <chr>, quantity <dbl>,
## #   nfigures <dbl>, engraved <dbl>, original <dbl>, prevcoll <dbl>,
## #   othartist <dbl>, paired <dbl>, figures <dbl>, finished <dbl>,
…
0

0

0

0

1

]
.pull-right-narrow[
.small[

## # A tibble: 3,393 x 3
##    name      Height_in school_pntg
##    <chr>         <dbl> <chr>      
##  1 L1764-2          37 F          
##  2 L1764-3          18 I          
##  3 L1764-4          13 D/FL       
##  4 L1764-5a         14 F          
##  5 L1764-5b         14 F          
##  6 L1764-6           7 I          
##  7 L1764-7a          6 F          
##  8 L1764-7b          6 F          
##  9 L1764-8          15 I          
## 10 L1764-9a          9 D/FL       
## 11 L1764-9b          9 D/FL       
## 12 L1764-10a        16 X          
## 13 L1764-10b        16 X          
## 14 L1764-10c        16 X          
## 15 L1764-11         20 D/FL       
## 16 L1764-12a        14 D/FL       
## 17 L1764-12b        14 D/FL       
## 18 L1764-13a        15 D/FL       
## 19 L1764-13b        15 D/FL       
## 20 L1764-14         37 F          
## # ... with 3,373 more rows
…
