Assignment A03 - van de Riet Fundamentals of Analytics
…
legos

## # A tibble: 620 x 14
##    first_name last_name    age phone_number set_id number theme  subtheme   year
##    <chr>      <chr>      <dbl> <chr>         <dbl> <chr>  <chr>  <chr>     <dbl>
##  1 Kimberly   Beckstead     24 216-555-2549  24701 76062  DC Co~ Mighty M~  2018
##  2 Neel       Garvin        35 819-555-3189  25626 70595  Ninja~ Rise of ~  2018
##  3 Neel       Garvin        35 819-555-3189  24665 21031  Archi~ <NA>       2018
##  4 Chelsea    Bouchard      41 <NA>          24695 31048  Creat~ <NA>       2018
##  5 Chelsea    Bouchard      41 <NA>          25626 70595  Ninja~ Rise of ~  2018
##  6 Chelsea    Bouchard      41 <NA>          24721 10831  Duplo  <NA>       2018
##  7 Bryanna    Welsh         19 <NA>          24797 75138  Star ~ Episode V  2018
##  8 Bryanna    Welsh         19 <NA>          24701 76062  DC Co~ Mighty M~  2018
##  9 Caleb      Garcia-Wi~    37 907-555-9236  24730 41115  Frien~ <NA>       2018
## 10 Caleb      Garcia-Wi~    37 907-555-9236  25611 21127  Minec~ Minifig-~  2018
## # ... with 610 more rows, and 5 more variables: name <chr>, pieces <dbl>,
## #   us_price <dbl>, image_url <chr>, quantity <dbl>

Most common first names

Based in the results of the count function, as shown in common_names, the top three most common first names are Jackson (13 customers), Jacob (11 customers), and Joseph (11 customers).

common_names <- legos %>% count(first_name) %>% arrange(desc(n))

common_names

## # A tibble: 211 x 2
##    first_name     n
##    <chr>      <int>
##  1 Jackson       13
##  2 Jacob         11
##  3 Joseph        11
##  4 Michael       10
##  5 Audrey         8
##  6 Connor         8
##  7 Kaitlyn        8
##  8 Lucas          8
##  9 Amanda         7
## 10 Joshua         7
## # ... with 201 more rows

Most common sets purchased

Using the same method as the first part of the assignment, the most common themes, as shown in common_themes are Star Wars (75), Nexo Knights (64), and Gear (55).

common_themes <- legos %>% count(theme) %>% arrange(desc(n))

common_themes

## # A tibble: 25 x 2
##    theme            n
##    <chr>        <int>
##  1 Star Wars       75
##  2 Nexo Knights    64
##  3 Gear            55
##  4 Mixels          55
##  5 City            45
##  6 Friends         42
##  7 Ninjago         38
##  8 Duplo           35
##  9 Bionicle        34
## 10 Creator         25
## # ... with 15 more rows

Most common subthemes

The most common subtheme (excluding the “NA” values, which there were 42 of), was the “Ultimate” subtheme, which belongs to the Nexo Knights theme. Interestingly, although not shown in common_subtheme, all the “NA” values among the most popular themes belonged to this theme as well.

top3_theme <- c("Star Wars", "Nexo Knights", "Gear")
common_subtheme <- legos %>% filter(theme %in% top3_theme) %>%
                  count(subtheme, theme)  %>%
                  arrange(desc(n)) %>%
                  drop_na()

common_subtheme

## # A tibble: 26 x 3
##    subtheme          theme            n
##    <chr>             <chr>        <int>
##  1 Ultimate          Nexo Knights    22
##  2 The Force Awakens Star Wars       15
##  3 Buildable Figures Star Wars       11
##  4 Episode V         Star Wars       10
##  5 MicroFighters     Star Wars       10
##  6 Battlefront       Star Wars        7
##  7 Original Content  Star Wars        7
##  8 Role-Play toys    Gear             7
##  9 Stationery        Gear             7
## 10 Episode III       Star Wars        6
## # ... with 16 more rows
…
