…
friends

## # A tibble: 229 x 10
##    Date   Episode Title      `Directed by` `Written by`  Duration Summary       
##    <chr>  <chr>   <chr>      <chr>         <chr>            <dbl> <chr>         
##  1 09/22~ 01-01   The Pilot  James Burrows David Crane ~       22 "Monica and t~
##  2 09/29~ 01-02   The One w~ James Burrows David Crane ~       22 "Ross finds o~
##  3 10/06~ 01-03   The One w~ James Burrows Jeffrey Astr~       22 "Monica becom~
##  4 10/13~ 01-04   The One w~ James Burrows Alexa Junge         22 "Joey and Cha~
##  5 10/20~ 01-05   The One w~ Pamela Fryman Jeff Greenst~       22 "Eager to spe~
##  6 10/27~ 01-06   The One w~ Arlene Sanfo~ Adam Chase &~       22 "Monica's obs~
##  7 11/03~ 01-07   The One w~ James Burrows Jeffrey Astr~       22 "When New Yor~
##  8 11/10~ 01-08   The One W~ James Burrows Marta Kauffm~       22 "Monica and R~
##  9 11/17~ 01-09   The One W~ James Burrows Jeff Greenst~       22 "The gang's p~
## 10 12/15~ 01-10   The One w~ Peter Bonerz  Adam Chase &~       22 "The gang mak~
## # ... with 219 more rows, and 3 more variables: Rating/Share <chr>,
## #   U.S. viewers <chr>, Prod. code <chr>

Pivoting the Data

The dataset selected for this assignment is not easily pivoted as all columns can stand alone and do not necessarily need to be combined to clarify or simplify the data. To exemplify this, the gather() and pivot_longer() functions were used. As shown by the output, there is not much gained from using these functions with this data (it is already fairly tidy).

Directors <- friends %>%
  select(Episode, `Prod.
code`, `Rating/Share`, `Directed by`) 

rename(Directors, `director(s)` = `Directed by`)

## # A tibble: 229 x 4
##    Episode `Prod.\ncode` `Rating/Share` `director(s)` 
##    <chr>   <chr>         <chr>          <chr>         
##  1 01-01   456650        14.7/23        James Burrows 
##  2 01-02   456652        14.0/22        James Burrows 
##  3 01-03   456651        13.6/22        James Burrows 
##  4 01-04   456654        13.7/22        James Burrows 
##  5 01-05   456653        12.9/20        Pamela Fryman 
##  6 01-06   456655        12.4/20        Arlene Sanford
##  7 01-07   456656        16.1/24        James Burrows 
##  8 01-08   456657        14.2/22        James Burrows 
##  9 01-09   456659        15.7/24        James Burrows 
## 10 01-10   456661        13.6/22        Peter Bonerz  
## # ... with 219 more rows

gather(Directors, key = `Prod. code`, value = Episode)

## # A tibble: 687 x 2
##    `Prod. code`  Episode
##    <chr>         <chr>  
##  1 "Prod.\ncode" 456650 
##  2 "Prod.\ncode" 456652 
##  3 "Prod.\ncode" 456651 
##  4 "Prod.\ncode" 456654 
##  5 "Prod.\ncode" 456653 
##  6 "Prod.\ncode" 456655 
##  7 "Prod.\ncode" 456656 
##  8 "Prod.\ncode" 456657 
##  9 "Prod.\ncode" 456659 
## 10 "Prod.\ncode" 456661 
## # ... with 677 more rows

pivot_longer(friends, 
  Title, 
  names_to = "ID", 
  values_to = "code")

## # A tibble: 229 x 11
##    Date   Episode `Directed by`  `Written by` Duration Summary    `Rating/Share`
##    <chr>  <chr>   <chr>          <chr>           <dbl> <chr>      <chr>         
##  1 09/22~ 01-01   James Burrows  David Crane~       22 "Monica a~ 14.7/23       
##  2 09/29~ 01-02   James Burrows  David Crane~       22 "Ross fin~ 14.0/22       
##  3 10/06~ 01-03   James Burrows  Jeffrey Ast~       22 "Monica b~ 13.6/22       
##  4 10/13~ 01-04   James Burrows  Alexa Junge        22 "Joey and~ 13.7/22       
##  5 10/20~ 01-05   Pamela Fryman  Jeff Greens~       22 "Eager to~ 12.9/20       
##  6 10/27~ 01-06   Arlene Sanford Adam Chase ~       22 "Monica's~ 12.4/20       
##  7 11/03~ 01-07   James Burrows  Jeffrey Ast~       22 "When New~ 16.1/24       
##  8 11/10~ 01-08   James Burrows  Marta Kauff~       22 "Monica a~ 14.2/22       
##  9 11/17~ 01-09   James Burrows  Jeff Greens~       22 "The gang~ 15.7/24       
## 10 12/15~ 01-10   Peter Bonerz   Adam Chase ~       22 "The gang~ 13.6/22       
## # ... with 219 more rows, and 4 more variables: U.S. viewers <chr>, Prod.
## #   code <chr>, ID <chr>, code <chr>
…
Pamela_Fryman

## # A tibble: 2 x 10
##   Date  Episode Title `Directed by` `Written by` Duration Summary `Rating/Share`
##   <chr> <chr>   <chr> <chr>         <chr>           <dbl> <chr>   <chr>         
## 1 10/2~ 01-05   The ~ Pamela Fryman "Jeff Green~       22 Eager ~ 12.9/20       
## 2 05/1~ 03-25   The ~ Pamela Fryman "Story by :~       22 While ~ 16.5/29       
## # ... with 2 more variables: U.S. viewers <chr>, Prod. code <chr>

Michael_Lembeck <- friends %>%
  filter(`Directed by` == "Michael Lembeck")

Michael_Lembeck

## # A tibble: 22 x 10
##    Date   Episode  Title    `Directed by` `Written by`    Duration Summary      
##    <chr>  <chr>    <chr>    <chr>         <chr>              <dbl> <chr>        
##  1 02/23~ "01-16"  The One~ Michael Lemb~ "Marta Kauffma~       22 "Phoebe feel~
##  2 02/23~ "01-17"  The One~ Michael Lemb~ "Marta Kauffma~       22 "Rachel swit~
##  3 09/21~ "02-01"  The One~ Michael Lemb~ "Jeffrey Astro~       22 "Rachel wait~
##  4 09/28~ "02-02"  The One~ Michael Lemb~ "Adam Chase & ~       22 "Monica goes~
##  5 01/28~ "02-12\~ The One~ Michael Lemb~ "Jeffrey Astro~       44 "Ross goes t~
##  6 02/08~ "02-15"  The One~ Michael Lemb~ "Michael Curti~       22 "Monica beco~
##  7 02/15~ "02-16"  The One~ Michael Lemb~ "Betsy Borns"         22 "Joey and Ch~
##  8 02/22~ "02-17"  The One~ Michael Lemb~ "Adam Chase"          22 "Chandler ge~
##  9 03/21~ "02-18"  The One~ Michael Lemb~ "Story by : Al~       22 "Joey's soap~
## 10 03/28~ "02-19"  The One~ Michael Lemb~ "Michael Curti~       22 "Chandler de~
## # ... with 12 more rows, and 3 more variables: Rating/Share <chr>,
## #   U.S. viewers <chr>, Prod. code <chr>
…
Dropping missing values

In this section you can see how the Others_Episodes data frame drops from the original 229 episodes to 212 episodes, dropping not only the 15 episodes that Burrows directed, but also 2 rows with had missing values.To determine if any of the episodes directed by Burrows had missing values as well, drop_na() was used. The resulting data set still had 15 rows, indicating that there was no missing information in these rows.

library(tidyverse)
library(dplyr)
library(tidyr)
Others_Episodes <- anti_join(Directors, Burrows_Episodes) %>%
  drop_na()

## Joining, by = c("Episode", "Prod.\ncode", "Rating/Share", "Directed by")

Others_Episodes

## # A tibble: 212 x 4
##    Episode `Prod.\ncode` `Rating/Share` `Directed by`  
##    <chr>   <chr>         <chr>          <chr>          
##  1 01-05   456653        12.9/20        Pamela Fryman  
##  2 01-06   456655        12.4/20        Arlene Sanford 
##  3 01-10   456661        13.6/22        Peter Bonerz   
##  4 01-12   456658        16.1/25        Paul Lazarus   
##  5 01-13   456664        17.3/26        Alan Myerson   
##  6 01-15   456663        16.9/25        Alan Myerson   
##  7 01-16   456665A       17.5/27        Michael Lembeck
##  8 01-17   456665B       20.8/31        Michael Lembeck
##  9 01-19   456668        20.0/31        Peter Bonerz   
## 10 01-20   456669        20.5/32        Peter Bonerz   
## # ... with 202 more rows
…
rename(friends, Director = `Directed by`, Writers = `Written by`, USviews = `U.S. viewers`, code = `Prod.\ncode`, RatingperShare = `Rating/Share`)

## # A tibble: 229 x 10
##    Date   Episode Title Director Writers Duration Summary RatingperShare USviews
##    <chr>  <chr>   <chr> <chr>    <chr>      <dbl> <chr>   <chr>          <chr>  
##  1 09/22~ 01-01   The ~ James B~ David ~       22 "Monic~ 14.7/23        21.5 m~
##  2 09/29~ 01-02   The ~ James B~ David ~       22 "Ross ~ 14.0/22        20.2 m~
##  3 10/06~ 01-03   The ~ James B~ Jeffre~       22 "Monic~ 13.6/22        19.5 m~
##  4 10/13~ 01-04   The ~ James B~ Alexa ~       22 "Joey ~ 13.7/22        19.7 m~
##  5 10/20~ 01-05   The ~ Pamela ~ Jeff G~       22 "Eager~ 12.9/20        18.6 m~
##  6 10/27~ 01-06   The ~ Arlene ~ Adam C~       22 "Monic~ 12.4/20        18.2 m~
##  7 11/03~ 01-07   The ~ James B~ Jeffre~       22 "When ~ 16.1/24        23.5 m~
##  8 11/10~ 01-08   The ~ James B~ Marta ~       22 "Monic~ 14.2/22        21.1 m~
##  9 11/17~ 01-09   The ~ James B~ Jeff G~       22 "The g~ 15.7/24        23.1 m~
## 10 12/15~ 01-10   The ~ Peter B~ Adam C~       22 "The g~ 13.6/22        19.9 m~
## # ... with 219 more rows, and 1 more variable: code <chr>
…
Michael_Lembeck %>% group_by(`Title`) 

## # A tibble: 22 x 10
## # Groups:   Title [22]
##    Date   Episode  Title    `Directed by` `Written by`    Duration Summary      
##    <chr>  <chr>    <chr>    <chr>         <chr>              <dbl> <chr>        
##  1 02/23~ "01-16"  The One~ Michael Lemb~ "Marta Kauffma~       22 "Phoebe feel~
##  2 02/23~ "01-17"  The One~ Michael Lemb~ "Marta Kauffma~       22 "Rachel swit~
##  3 09/21~ "02-01"  The One~ Michael Lemb~ "Jeffrey Astro~       22 "Rachel wait~
##  4 09/28~ "02-02"  The One~ Michael Lemb~ "Adam Chase & ~       22 "Monica goes~
##  5 01/28~ "02-12\~ The One~ Michael Lemb~ "Jeffrey Astro~       44 "Ross goes t~
##  6 02/08~ "02-15"  The One~ Michael Lemb~ "Michael Curti~       22 "Monica beco~
##  7 02/15~ "02-16"  The One~ Michael Lemb~ "Betsy Borns"         22 "Joey and Ch~
##  8 02/22~ "02-17"  The One~ Michael Lemb~ "Adam Chase"          22 "Chandler ge~
##  9 03/21~ "02-18"  The One~ Michael Lemb~ "Story by : Al~       22 "Joey's soap~
## 10 03/28~ "02-19"  The One~ Michael Lemb~ "Michael Curti~       22 "Chandler de~
## # ... with 12 more rows, and 3 more variables: Rating/Share <chr>,
## #   U.S. viewers <chr>, Prod. code <chr>
…
