…
legos

## # A tibble: 620 x 14
##    first_name last_name    age phone_number set_id number theme  subtheme   year
##    <chr>      <chr>      <dbl> <chr>         <dbl> <chr>  <chr>  <chr>     <dbl>
##  1 Kimberly   Beckstead     24 216-555-2549  24701 76062  DC Co~ Mighty M~  2018
##  2 Neel       Garvin        35 819-555-3189  25626 70595  Ninja~ Rise of ~  2018
##  3 Neel       Garvin        35 819-555-3189  24665 21031  Archi~ <NA>       2018
##  4 Chelsea    Bouchard      41 <NA>          24695 31048  Creat~ <NA>       2018
##  5 Chelsea    Bouchard      41 <NA>          25626 70595  Ninja~ Rise of ~  2018
##  6 Chelsea    Bouchard      41 <NA>          24721 10831  Duplo  <NA>       2018
##  7 Bryanna    Welsh         19 <NA>          24797 75138  Star ~ Episode V  2018
##  8 Bryanna    Welsh         19 <NA>          24701 76062  DC Co~ Mighty M~  2018
##  9 Caleb      Garcia-Wi~    37 907-555-9236  24730 41115  Frien~ <NA>       2018
## 10 Caleb      Garcia-Wi~    37 907-555-9236  25611 21127  Minec~ Minifig-~  2018
## # ... with 610 more rows, and 5 more variables: name <chr>, pieces <dbl>,
## #   us_price <dbl>, image_url <chr>, quantity <dbl>

Most common first names

Based in the results of the count function, as shown in common_names, the top three most common first names are Jackson (13 customers), Jacob (11 customers), and Joseph (11 customers).

common_names <- legos %>% count(first_name) %>% arrange(desc(n))

common_names

## # A tibble: 211 x 2
##    first_name     n
##    <chr>      <int>
##  1 Jackson       13
##  2 Jacob         11
##  3 Joseph        11
##  4 Michael       10
##  5 Audrey         8
##  6 Connor         8
##  7 Kaitlyn        8
##  8 Lucas          8
##  9 Amanda         7
## 10 Joshua         7
## # ... with 201 more rows

Most common sets purchased

Using the same method as the first part of the assignment, the most common themes, as shown in common_themes are Star Wars (75), Nexo Knights (64), and Gear (55).

common_themes <- legos %>% count(theme) %>% arrange(desc(n))

common_themes

## # A tibble: 25 x 2
##    theme            n
##    <chr>        <int>
##  1 Star Wars       75
##  2 Nexo Knights    64
##  3 Gear            55
##  4 Mixels          55
##  5 City            45
##  6 Friends         42
##  7 Ninjago         38
##  8 Duplo           35
##  9 Bionicle        34
## 10 Creator         25
## # ... with 15 more rows

Most common subthemes

The most common subtheme (excluding the “NA” values, which there were 42 of), was the “Ultimate” subtheme, which belongs to the Nexo Knights theme. Interestingly, although not shown in common_subtheme, all the “NA” values among the most popular themes belonged to this theme as well.

top3_theme <- c("Star Wars", "Nexo Knights", "Gear")
common_subtheme <- legos %>% filter(theme %in% top3_theme) %>%
                  count(subtheme, theme)  %>%
                  arrange(desc(n)) %>%
                  drop_na()

common_subtheme

## # A tibble: 26 x 3
##    subtheme          theme            n
##    <chr>             <chr>        <int>
##  1 Ultimate          Nexo Knights    22
##  2 The Force Awakens Star Wars       15
##  3 Buildable Figures Star Wars       11
##  4 Episode V         Star Wars       10
##  5 MicroFighters     Star Wars       10
##  6 Battlefront       Star Wars        7
##  7 Original Content  Star Wars        7
##  8 Role-Play toys    Gear             7
##  9 Stationery        Gear             7
## 10 Episode III       Star Wars        6
## # ... with 16 more rows

Creating the age_group variable

In this section I created the age_group variable, as shown in the legos_by_age dataframe, in the 15th column.

legos_by_age <- legos %>% mutate(age_group = case_when(
                            age < 18 ~ "18 and under",
                            age < 25 ~ "19-25",
                            age < 35 ~ "26-35",
                            age < 50 ~ "36-50",
                            age > 51 ~ "51 and over"))
          
legos_by_age

## # A tibble: 620 x 15
##    first_name last_name    age phone_number set_id number theme  subtheme   year
##    <chr>      <chr>      <dbl> <chr>         <dbl> <chr>  <chr>  <chr>     <dbl>
##  1 Kimberly   Beckstead     24 216-555-2549  24701 76062  DC Co~ Mighty M~  2018
##  2 Neel       Garvin        35 819-555-3189  25626 70595  Ninja~ Rise of ~  2018
##  3 Neel       Garvin        35 819-555-3189  24665 21031  Archi~ <NA>       2018
##  4 Chelsea    Bouchard      41 <NA>          24695 31048  Creat~ <NA>       2018
##  5 Chelsea    Bouchard      41 <NA>          25626 70595  Ninja~ Rise of ~  2018
##  6 Chelsea    Bouchard      41 <NA>          24721 10831  Duplo  <NA>       2018
##  7 Bryanna    Welsh         19 <NA>          24797 75138  Star ~ Episode V  2018
##  8 Bryanna    Welsh         19 <NA>          24701 76062  DC Co~ Mighty M~  2018
##  9 Caleb      Garcia-Wi~    37 907-555-9236  24730 41115  Frien~ <NA>       2018
## 10 Caleb      Garcia-Wi~    37 907-555-9236  25611 21127  Minec~ Minifig-~  2018
## # ... with 610 more rows, and 6 more variables: name <chr>, pieces <dbl>,
## #   us_price <dbl>, image_url <chr>, quantity <dbl>, age_group <chr>
…
spent_u18 = money_u18$us_price*money_u18$n

u18 = sum(spent_u18)

u18

## [1] 421.83

money_u25 <- money_customers %>% filter(age_group == "19-25")

money_u25

## # A tibble: 109 x 4
## # Groups:   age_group [1]
##    age_group set_id us_price     n
##    <chr>      <dbl>    <dbl> <int>
##  1 19-25      24627   250.       1
##  2 19-25      24660    15.0      2
##  3 19-25      24661    15.0      1
##  4 19-25      24663    30.0      1
##  5 19-25      24664    60.0      1
##  6 19-25      24665    40.0      1
##  7 19-25      24666     9.99     2
##  8 19-25      24668     9.99     1
##  9 19-25      24671    15.0      1
## 10 19-25      24672    15.0      1
## # ... with 99 more rows

spent_u25 = money_u25$us_price*money_u25$n

u25 = sum(spent_u25)

u25

## [1] 3426.7

money_u35 <- money_customers %>% filter(age_group == "26-35")

money_u35

## # A tibble: 130 x 4
## # Groups:   age_group [1]
##    age_group set_id us_price     n
##    <chr>      <dbl>    <dbl> <int>
##  1 26-35      24551    15.0      1
##  2 26-35      24618    15.0      1
##  3 26-35      24619     4.99     1
##  4 26-35      24660    15.0      1
##  5 26-35      24662    30.0      2
##  6 26-35      24663    30.0      1
##  7 26-35      24672    15.0      3
##  8 26-35      24677    40.0      1
##  9 26-35      24679    40.0      1
## 10 26-35      24680     9.99     1
## # ... with 120 more rows

spent_u35 = money_u35$us_price*money_u35$n

u35 = sum(spent_u35)

u35

## [1] 5023.22

money_u50 <- money_customers %>% filter(age_group == "36-50")

money_u50

## # A tibble: 152 x 4
## # Groups:   age_group [1]
##    age_group set_id us_price     n
##    <chr>      <dbl>    <dbl> <int>
##  1 36-50      24548    15.0      1
##  2 36-50      24551    15.0      1
##  3 36-50      24621     4.99     1
##  4 36-50      24625    30.0      1
##  5 36-50      24659    30.0      3
##  6 36-50      24664    60.0      1
##  7 36-50      24665    40.0      2
##  8 36-50      24669     9.99     2
##  9 36-50      24670    15.0      2
## 10 36-50      24672    15.0      1
## # ... with 142 more rows

spent_u50 = money_u50$us_price*money_u50$n

u50 = sum(spent_u50)

u50

## [1] 6836.8

money_o51 <- money_customers %>% filter(age_group == "51 and over")

money_o51

## # A tibble: 44 x 4
## # Groups:   age_group [1]
##    age_group   set_id us_price     n
##    <chr>        <dbl>    <dbl> <int>
##  1 51 and over  24618    15.0      1
##  2 51 and over  24619     4.99     1
##  3 51 and over  24663    30.0      1
##  4 51 and over  24666     9.99     1
##  5 51 and over  24683    20.0      1
##  6 51 and over  24689    50.0      1
##  7 51 and over  24697    13.0      1
##  8 51 and over  24704     9.99     1
##  9 51 and over  24709    30.0      2
## 10 51 and over  24711    20.0      1
## # ... with 34 more rows
…
